Ch05_Point_Operations\Make_Uniform_Noise.class
Ch05_Point_Operations\Linear_Blending.class
Ch04_Histograms\Create_New_Image.class
Ch10_Morphology\Bin_Dilate_Disk_Demo.class
xC_IJ_Short_Reference\Display_Demo.class
Ch12_Color_Images\Octree_Quantization.class
Ch15_DCT\DCT_2D_Demo.class
Ch12_Color_Images\ICC_Profile_Example.class
Ch16_Geometric_Ops\Transform_Rotate.class
Ch12_Color_Images\Desaturate_Rgb.class
Ch12_Color_Images\Index_To_Rgb.class
Ch05_Point_Operations\Match_To_Piecewise_Linear_Histogram.class
Test\Test_Installation.class
Ch05_Point_Operations\Match_To_Gaussian_Histogram.class
Ch10_Morphology\Bin_Morphology_Free.class
Ch16_Geometric_Ops\Make_Test_Grid.class
Ch11_Binary_Regions\Region_Labeling_Demo.class
Ch05_Point_Operations\Match_To_Image_Histogram.class
Ch07_Edges_Contours\UnsharpMasking_Filter.class
xC_IJ_Short_Reference\Plugin_1.class
Ch05_Point_Operations\Show_Histogram.class
Ch11_Binary_Regions\Region_Labeling_Demo$1.class
Ch17_Image_Matching\Show_Distance_Map.class
Ch09_Hough_Transform\Find_Straight_Lines_Simple.class
Ch06_Filters\Filter_Arbitrary.class
Ch11_Binary_Regions\Region_Contours_Demo.class
Ch11_Binary_Regions\Trace_Contours_Overlay.class
Ch12_Color_Images\Count_Colors.class
Ch06_Filters\Filter_Smooth_3x3.class
Ch03_ImageJ_Introduction\My_Inverter_B.class
Ch16_Geometric_Ops\Transform_Bilinear.class
xC_IJ_Short_Reference\Roi_Demo.class
Ch12_Color_Images\Hsv_Test.class
xC_IJ_Short_Reference\Convert_ImagePlus_To_Gray8.class
Ch17_Image_Matching\Chamfer_Matching_Demo.class
Ch13_Spectral_Techniques\DirectDft1D.class
Ch08_Corner_Detection\Find_Corners.class
Ch05_Point_Operations\Gamma_Correction.class
Ch14_DFT_2D\DFT_2D_Demo.class
xC_IJ_Short_Reference\Direct_Pixel_Access.class
Ch05_Point_Operations\Raise_Contrast_Fast.class
Ch10_Morphology\Bin_Morphology_Disk.class
Ch11_Binary_Regions\Region_Labeling_Demo$LabelingMethod.class
Ch12_Color_Images\Brighten_Index_Image.class
Ch12_Color_Images\Convert_Rgb_To_Gray.class
xC_IJ_Short_Reference\Generic_Dialog_Example.class
Ch06_Filters\Filter_Median.class
Ch07_Edges_Contours\ShowSobelEdges_Color.class
Ch11_Binary_Regions\Make_Projections.class
Ch12_Color_Images\Brighten_Rgb_1.class
Ch03_ImageJ_Introduction\My_Inverter_A.class
Ch04_Histograms\Compute_Histogram.class
Ch16_Geometric_Ops\Transform_Spherical.class
xC_IJ_Short_Reference\Plugin_2.class
Ch09_Hough_Transform\Find_Straight_Lines.class
xC_IJ_Short_Reference\Alpha_Blending_Stack.class
Ch16_Geometric_Ops\Transform_Affine_Matrix.class
Ch05_Point_Operations\Equalize_Histogram.class
Ch16_Geometric_Ops\Interpolator_Demo.class
Ch16_Geometric_Ops\Transform_Twirl.class
Ch13_Spectral_Techniques\DirectDft1DTab.class
Ch04_Histograms\Test_GetStatistics.class
Ch12_Color_Images\Brighten_Rgb_2.class
Ch12_Color_Images\Median_Cut_Quantization.class
Ch16_Geometric_Ops\Transform_Affine.class
Ch16_Geometric_Ops\Transform_Translate.class
Ch17_Image_Matching\CorrelCoeff_Matching_Demo.class
Ch05_Point_Operations\Raise_Contrast.class
Ch06_Filters\Filter_Average_3x3.class
Ch16_Geometric_Ops\Transform_Ripple.class
Ch16_Geometric_Ops\Transform_Projective.class
