A04_Point_Operations\Make_Uniform_Noise.class
B10_Geometric_Operations\Transform_Ripple.class
A04_Point_Operations\Raise_Contrast.class
C05_Edge_Pres_Filters\Bilateral_Filter_Separable.class
C03_Color_Filters\MedianFilter_Color_VectorSharpen.class
A03_Histograms\Test_GetStatistics.class
A08_Color_Images\Brighten_Rgb_2.class
A04_Point_Operations\Gamma_Correction.class
Test\Test_Installation.class
B06_Colorimetry\ICC_Profile_Example.class
B03_Hough_Transform\Find_Straight_Lines_Simple.class
B11_Image_Matching\Show_Distance_Map.class
C04_Color_Edges\Color_Edges_DiZenzo.class
A03_Histograms\Create_New_Image.class
C04_Color_Edges\Canny_Edge_Demo_Minimal.class
A02_ImageJ_Introduction\My_Inverter_A.class
B05_Color_Quantization\Median_Cut_Quantization.class
C02_Automatic_Thresholding\Threshold_Global_Median.class
C04_Color_Edges\Color_Edges_Mono.class
C07_SIFT\Show_DogScaleSpace.class
B11_Image_Matching\CorrelCoeff_Matching_Demo.class
A05_Filters\Filter_Median.class
A08_Color_Images\Count_Colors.class
C02_Automatic_Thresholding\Threshold_Adaptive_Interpolating.class
C05_Edge_Pres_Filters\Perona_Malik_Filter.class
A04_Point_Operations\Match_To_Gaussian_Histogram.class
C02_Automatic_Thresholding\Threshold_Adaptive_All$Mode.class
A04_Point_Operations\Linear_Blending.class
B10_Geometric_Operations\Transform_Affine_Matrix.class
B10_Geometric_Operations\Make_Test_Grid.class
C02_Automatic_Thresholding\Threshold_Global_All.class
A04_Point_Operations\Match_To_Piecewise_Linear_Histogram.class
C03_Color_Filters\MedianFilter_Color_Scalar.class
C02_Automatic_Thresholding\Threshold_Global_Mean.class
C04_Color_Edges\Color_Edges_Gray.class
C02_Automatic_Thresholding\Threshold_Adaptive_All.class
A03_Histograms\Compute_Histogram.class
C05_Edge_Pres_Filters\Tschumperle_Deriche_Filter.class
C03_Color_Filters\Gaussian_Filter_Color.class
C07_SIFT\Extract_Sift_Features.class
C03_Color_Filters\Hsv_Filter.class
C02_Automatic_Thresholding\Threshold_Global_All$Mode.class
C02_Automatic_Thresholding\Threshold_Global_Isodata.class
B10_Geometric_Operations\Transform_Spherical.class
B02_Binary_Regions\Make_Projections.class
A08_Color_Images\Convert_Rgb_To_Gray.class
B07_Spectral_Techniques\DirectDft1DTab.class
C03_Color_Filters\Hsv_Filter_With_SaturationWeight.class
C02_Automatic_Thresholding\Threshold_Adaptive_Bernsen.class
C04_Color_Edges\Color_Edges_Canny.class
A05_Filters\Filter_Average_3x3.class
B02_Binary_Regions\Region_Contours_Demo.class
A08_Color_Images\Hsv_Test.class
B04_Corner_Detection\Find_Corners.class
C03_Color_Filters\Hsv_Show_Hue_Only.class
B08_DFT_2D\DFT_2D_Demo.class
A05_Filters\Filter_Arbitrary.class
B02_Binary_Regions\Region_Labeling_Demo$1.class
C05_Edge_Pres_Filters\Bilateral_Filter.class
A04_Point_Operations\Show_Histogram.class
C06_Fourier_Descriptors\CommonSetup.class
B02_Binary_Regions\Region_Labeling_Demo.class
C03_Color_Filters\Geometry_Rotate_Color.class
C05_Edge_Pres_Filters\Nagao_Matsuyama_Filter.class
B02_Binary_Regions\Trace_Contours_Overlay.class
B10_Geometric_Operations\Transform_Translate.class
B10_Geometric_Operations\Transform_Twirl.class
A06_Edges_Contours\UnsharpMasking_Filter.class
B10_Geometric_Operations\Interpolator_Demo.class
C07_SIFT\Show_GaussianScaleSpace.class
A08_Color_Images\Brighten_Rgb_1.class
C06_Fourier_Descriptors\Fourier_Descriptor_IrregularSampling.class
A05_Filters\Filter_Smooth_3x3.class
A07_Morphology\Bin_Dilate_Disk_Demo.class
C03_Color_Filters\Geometry_Rotate_Color$1.class
B07_Spectral_Techniques\DirectDft1D.class
C02_Automatic_Thresholding\Threshold_Global_MinMax.class
B09_DCT\DCT_2D_Demo.class
C03_Color_Filters\Gaussian_Filter_Color$1.class
A07_Morphology\Bin_Morphology_Disk.class
C06_Fourier_Descriptors\Fourier_Descriptor_RegularSampling.class
B05_Color_Quantization\Octree_Quantization.class
A08_Color_Images\Brighten_Index_Image.class
B10_Geometric_Operations\Transform_Projective.class
C02_Automatic_Thresholding\Threshold_Global_Otsu.class
C03_Color_Filters\MedianFilter_Color_Vector.class
B11_Image_Matching\Chamfer_Matching_Demo.class
C02_Automatic_Thresholding\Threshold_Global_MaxEntropy.class
A08_Color_Images\Index_To_Rgb.class
A06_Edges_Contours\ShowSobelEdges_Color.class
A04_Point_Operations\Raise_Contrast_Fast.class
B03_Hough_Transform\Find_Straight_Lines.class
C05_Edge_Pres_Filters\Kuwahara_Filter.class
B10_Geometric_Operations\Transform_Affine.class
B02_Binary_Regions\Region_Labeling_Demo$LabelingMethod.class
B10_Geometric_Operations\Transform_Rotate.class
A02_ImageJ_Introduction\My_Inverter_B.class
C02_Automatic_Thresholding\Threshold_Global_MinError.class
A07_Morphology\Bin_Morphology_Free.class
C02_Automatic_Thresholding\Threshold_Adaptive_Sauvola.class
A04_Point_Operations\Match_To_Image_Histogram.class
B10_Geometric_Operations\Transform_Bilinear.class
A04_Point_Operations\Equalize_Histogram.class
C02_Automatic_Thresholding\Threshold_Adaptive_Niblack.class
C02_Automatic_Thresholding\Threshold_Global_Quantile.class
A08_Color_Images\Desaturate_Rgb.class
